<?xml version="1.0" encoding="utf-8"?>
<!-- Generator: Adobe Illustrator 26.2.1, SVG Export Plug-In . SVG Version: 6.00 Build 0)  -->
<svg version="1.1" id="Ebene_1" xmlns="http://www.w3.org/2000/svg" xmlns:xlink="http://www.w3.org/1999/xlink" x="0px" y="0px"
	 viewBox="0 0 11.29 20.36" style="enable-background:new 0 0 11.29 20.36;" xml:space="preserve">
<path d="M8.59,9.38c-1.79,1.15-2.24,2.59-2.26,3.82c0,0.35,0.03,0.71,0.06,1.03c0,0-0.65-0.15-1.58-0.15S3,14.23,3,14.23l-0.15-0.76
	c-0.09-0.41-0.12-0.79-0.12-1.18c0-1.79,0.91-3.18,2.71-4.47c0.82-0.59,1.94-1.18,1.94-2.38c0-1.44-1.12-2.03-2.41-2.03
	c-1.41,0-1.71,0.2-2.6,0.91L0,2.55C0.74,1.79,2.67,0,5.7,0c3,0,5.59,1.82,5.59,4.91C11.29,7.62,9.64,8.7,8.59,9.38z"/>
<path d="M4.77,20.36c-1.16,0-2.09-0.95-2.09-2.14c0-1.19,0.95-2.14,2.14-2.14c1.16,0,2.11,0.95,2.11,2.14
	C6.94,19.41,5.96,20.36,4.77,20.36z"/>
</svg>
